…
```
## The following objects are masked from 'package:base':
## 
##     intersect, setdiff, setequal, union
```

```r
#calculating steps taken daily
daily_steps <- data %>% filter(!is.na(steps))  %>% group_by(date) %>% summarise(steps = sum(steps)) %>% print
```

```
## # A tibble: 53 x 2
##    date       steps
##    <date>     <int>
##  1 2012-10-02   126
##  2 2012-10-03 11352
##  3 2012-10-04 12116
##  4 2012-10-05 13294
##  5 2012-10-06 15420
##  6 2012-10-07 11015
##  7 2012-10-09 12811
##  8 2012-10-10  9900
##  9 2012-10-11 10304
## 10 2012-10-12 17382
## # ... with 43 more rows
```
…
```
## [1] 10765
```

## What is the average daily activity pattern?

Next was making a time series plot, For it first I calculated the average steps depending by grouping the data by interval.

```r
#average steps by 5 minute interval
average_steps <- data %>% filter(!is.na(steps)) %>% group_by(interval) %>% summarise(steps = mean(steps)) %>% print
```

```
## # A tibble: 288 x 2
##    interval  steps
##       <int>  <dbl>
##  1        0 1.72  
##  2        5 0.340 
##  3       10 0.132 
##  4       15 0.151 
##  5       20 0.0755
##  6       25 2.09  
##  7       30 0.528 
##  8       35 0.868 
##  9       40 0     
## 10       45 1.47  
## # ... with 278 more rows
```
…
```r
#replacing NAs with the mean of the respective groups accoring to the interval
data1 <- data %>% group_by(interval)
data1$steps[is.na(data1$steps)] <- mean(data1$steps, na.rm=TRUE)
```
After that, following the earlier check of steps taken daily, again I made a histogram using the same technique.

```r
#calculating steps taken daily
daily_steps1 <- data1   %>% group_by(date) %>% summarise(steps = sum(steps)) %>% print
```

```
## # A tibble: 61 x 2
##    date        steps
##    <date>      <dbl>
##  1 2012-10-01 10766.
##  2 2012-10-02   126 
##  3 2012-10-03 11352 
##  4 2012-10-04 12116 
##  5 2012-10-05 13294 
##  6 2012-10-06 15420 
##  7 2012-10-07 11015 
##  8 2012-10-08 10766.
##  9 2012-10-09 12811 
## 10 2012-10-10  9900 
## # ... with 51 more rows
```
…
#renaming as weekends and weekdays
data2$days <- gsub("saturday|sunday", "Weekend", data2$days, ignore.case = TRUE)


data2$days <- gsub("monday|tuesday|wednesday|thursday|friday", "Weekday", data2$days, ignore.case = TRUE)
```
Calculated the average steps per interval throughout the study:

```r
#Calculating the average steps per interval
daily_steps2 <- data2   %>% group_by(interval,days) %>% summarise(steps = mean(steps)) %>% print
```

```
## # A tibble: 576 x 3
## # Groups:   interval [288]
##    interval days    steps
##       <int> <chr>   <dbl>
##  1        0 Weekday  7.01
##  2        0 Weekend  4.67
##  3        5 Weekday  5.38
##  4        5 Weekend  4.67
##  5       10 Weekday  5.14
##  6       10 Weekend  4.67
##  7       15 Weekday  5.16
##  8       15 Weekend  4.67
##  9       20 Weekday  5.07
## 10       20 Weekend  4.67
## # ... with 566 more rows
```
…
